P1/alu.vcd
$date
	Mon Nov  7 18:43:34 2022
$end
$version
	Icarus Verilog
$end
$timescale
	10ps
$end
$scope module alu_tb $end
$var wire 1 ! t_z $end
$var wire 1 " t_s $end
$var wire 1 # t_c $end
$var wire 4 $ t_R [3:0] $end
$var reg 4 % t_A [3:0] $end
$var reg 4 & t_B [3:0] $end
$var reg 2 ' t_Op [1:0] $end
$var reg 1 ( t_l $end
$var integer 32 ) errores [31:0] $end
$scope module mat $end
$var wire 4 * A [3:0] $end
$var wire 2 + ALUOp [1:0] $end
$var wire 4 , B [3:0] $end
$var wire 4 - R [3:0] $end
$var wire 1 # carry $end
$var wire 1 ( l $end
$var wire 1 " sign $end
$var wire 1 ! zero $end
$var wire 4 . salida_ul4 [3:0] $end
$var wire 4 / salida_sum4 [3:0] $end
$var wire 1 0 posible_carry $end
$var wire 4 1 OP2 [3:0] $end
$var wire 4 2 OP1 [3:0] $end
$var reg 1 3 C_in0 $end
$var reg 4 4 R_Aux [3:0] $end
$var reg 1 5 carry_Aux $end
$var reg 1 6 cpl $end
$var reg 4 7 op1_A [3:0] $end
$var reg 4 8 op2_B [3:0] $end
$var reg 1 9 sign_Aux $end
$var reg 1 : zero_Aux $end
$scope module complementador $end
$var wire 4 ; Inp [3:0] $end
$var wire 1 6 cpl $end
$var wire 4 < Out [3:0] $end
$upscope $end
$scope module logica $end
$var wire 4 = A [3:0] $end
$var wire 4 > B [3:0] $end
$var wire 2 ? S [1:0] $end
$var wire 4 @ Out [3:0] $end
$scope module cl_1 $end
$var wire 2 A S [1:0] $end
$var wire 1 B a $end
$var wire 1 C and1 $end
$var wire 1 D b $end
$var wire 1 E not1 $end
$var wire 1 F or1 $end
$var wire 1 G xor1 $end
$var wire 1 H out $end
$scope module mux_1 $end
$var wire 2 I S [1:0] $end
$var wire 1 C a $end
$var wire 1 F b $end
$var wire 1 G c $end
$var wire 1 E d $end
$var reg 1 H out $end
$upscope $end
$upscope $end
$scope module cl_2 $end
$var wire 2 J S [1:0] $end
$var wire 1 K a $end
$var wire 1 L and1 $end
$var wire 1 M b $end
$var wire 1 N not1 $end
$var wire 1 O or1 $end
$var wire 1 P xor1 $end
$var wire 1 Q out $end
$scope module mux_1 $end
$var wire 2 R S [1:0] $end
$var wire 1 L a $end
$var wire 1 O b $end
$var wire 1 P c $end
$var wire 1 N d $end
$var reg 1 Q out $end
$upscope $end
$upscope $end
$scope module cl_3 $end
$var wire 2 S S [1:0] $end
$var wire 1 T a $end
$var wire 1 U and1 $end
$var wire 1 V b $end
$var wire 1 W not1 $end
$var wire 1 X or1 $end
$var wire 1 Y xor1 $end
$var wire 1 Z out $end
$scope module mux_1 $end
$var wire 2 [ S [1:0] $end
$var wire 1 U a $end
$var wire 1 X b $end
$var wire 1 Y c $end
$var wire 1 W d $end
$var reg 1 Z out $end
$upscope $end
$upscope $end
$scope module cl_4 $end
$var wire 2 \ S [1:0] $end
$var wire 1 ] a $end
$var wire 1 ^ and1 $end
$var wire 1 _ b $end
$var wire 1 ` not1 $end
$var wire 1 a or1 $end
$var wire 1 b xor1 $end
$var wire 1 c out $end
$scope module mux_1 $end
$var wire 2 d S [1:0] $end
$var wire 1 ^ a $end
$var wire 1 a b $end
$var wire 1 b c $end
$var wire 1 ` d $end
$var reg 1 c out $end
$upscope $end
$upscope $end
$upscope $end
$scope module sumador $end
$var wire 4 e A [3:0] $end
$var wire 4 f B [3:0] $end
$var wire 1 3 c_in $end
$var wire 1 0 c_out $end
$var wire 4 g S [3:0] $end
$var wire 1 h C3 $end
$var wire 1 i C2 $end
$var wire 1 j C1 $end
$scope module fa_1 $end
$var wire 1 k a $end
$var wire 1 l b $end
$var wire 1 3 c_in $end
$var wire 1 j sum $end
$var wire 1 m c_out $end
$upscope $end
$scope module fa_2 $end
$var wire 1 n a $end
$var wire 1 o b $end
$var wire 1 j c_in $end
$var wire 1 i sum $end
$var wire 1 p c_out $end
$upscope $end
$scope module fa_3 $end
$var wire 1 q a $end
$var wire 1 r b $end
$var wire 1 i c_in $end
$var wire 1 h sum $end
$var wire 1 s c_out $end
$upscope $end
$scope module fa_4 $end
$var wire 1 t a $end
$var wire 1 u b $end
$var wire 1 h c_in $end
$var wire 1 0 sum $end
$var wire 1 v c_out $end
$upscope $end
$upscope $end
$upscope $end
$scope task check $end
$var reg 1 w flag_carry $end
$var reg 1 x flag_sign $end
$var reg 1 y flag_zero $end
$var reg 5 z result [4:0] $end
$upscope $end
$upscope $end
$enddefinitions $end
#0
$dumpvars
bx z
xy
xx
xw
0v
1u
0t
0s
1r
0q
0p
1o
0n
0m
1l
0k
1j
1i
1h
b0 g
b1111 f
b0 e
b0 d
0c
1b
1a
1`
1_
0^
0]
b0 \
b0 [
0Z
1Y
1X
1W
1V
0U
0T
b0 S
b0 R
0Q
1P
1O
1N
1M
0L
0K
b0 J
b0 I
0H
1G
1F
1E
1D
0C
0B
b0 A
b0 @
b0 ?
b1111 >
b0 =
b1111 <
b0 ;
1:
09
b0 8
b0 7
16
15
b0 4
13
b0 2
b1111 1
10
b0 /
b0 .
b0 -
b0 ,
b0 +
b0 *
b0 )
0(
b0 '
b0 &
b0 %
b0 $
1#
0"
1!
$end
#200
b1 &
b1 ,
1y
0x
1w
b10000 z
#400
b10 &
b10 ,
#600
b11 &
b11 ,
#800
b100 &
b100 ,
#1000
b101 &
b101 ,
#1200
b110 &
b110 ,
#1400
b111 &
b111 ,
#1600
b1000 &
b1000 ,
#1800
b1001 &
b1001 ,
#2000
b1010 &
b1010 ,
#2200
b1011 &
b1011 ,
#2400
b1100 &
b1100 ,
#2600
b1101 &
b1101 ,
#2800
b1110 &
b1110 ,
#3000
b1111 &
b1111 ,
#3200
0#
05
1"
19
1v
00
1s
0h
0!
0:
1p
0i
0F
0G
b1111 $
b1111 -
b1111 4
b1111 /
b1111 g
1m
0j
0D
0l
b1110 1
b1110 <
b1110 >
b1110 f
b1 8
b1 ;
b1 %
b1 *
b0 &
b0 ,
#3400
b1 &
b1 ,
0y
1x
0w
b1111 z
#3600
b10 &
b10 ,
#3800
b11 &
b11 ,
#4000
b100 &
b100 ,
#4200
b101 &
b101 ,
#4400
b110 &
b110 ,
#4600
b111 &
b111 ,
#4800
b1000 &
b1000 ,
#5000
b1001 &
b1001 ,
#5200
b1010 &
b1010 ,
#5400
b1011 &
b1011 ,
#5600
b1100 &
b1100 ,
#5800
b1101 &
b1101 ,
#6000
b1110 &
b1110 ,
#6200
b1111 &
b1111 ,
#6400
1F
1G
0O
0P
0m
1j
b1110 $
b1110 -
b1110 4
b1110 /
b1110 g
1p
1D
0M
1l
0o
b1101 1
b1101 <
b1101 >
b1101 f
b10 8
b10 ;
b10 %
b10 *
b0 &
b0 ,
#6600
b1 &
b1 ,
b1110 z
#6800
b10 &
b10 ,
#7000
b11 &
b11 ,
#7200
b100 &
b100 ,
#7400
b101 &
b101 ,
#7600
b110 &
b110 ,
#7800
b111 &
b111 ,
#8000
b1000 &
b1000 ,
#8200
b1001 &
b1001 ,
#8400
b1010 &
b1010 ,
#8600
b1011 &
b1011 ,
#8800
b1100 &
b1100 ,
#9000
b1101 &
b1101 ,
#9200
b1110 &
b1110 ,
#9400
b1111 &
b1111 ,
#9600
0p
0F
0G
b1101 $
b1101 -
b1101 4
b1101 /
b1101 g
1m
0j
0D
0l
b1100 1
b1100 <
b1100 >
b1100 f
b11 8
b11 ;
b11 %
b11 *
b0 &
b0 ,
#9800
b1 &
b1 ,
b1101 z
#10000
b10 &
b10 ,
#10200
b11 &
b11 ,
#10400
b100 &
b100 ,
#10600
b101 &
b101 ,
#10800
b110 &
b110 ,
#11000
b111 &
b111 ,
#11200
b1000 &
b1000 ,
#11400
b1001 &
b1001 ,
#11600
b1010 &
b1010 ,
#11800
b1011 &
b1011 ,
#12000
b1100 &
b1100 ,
#12200
b1101 &
b1101 ,
#12400
b1110 &
b1110 ,
#12600
b1111 &
b1111 ,
#12800
1i
1F
1G
1O
1P
0X
0Y
0m
1j
0p
b1100 $
b1100 -
b1100 4
b1100 /
b1100 g
1s
1D
1M
0V
1l
1o
0r
b1011 1
b1011 <
b1011 >
b1011 f
b100 8
b100 ;
b100 %
b100 *
b0 &
b0 ,
#13000
b1 &
b1 ,
b1100 z
#13200
b10 &
b10 ,
#13400
b11 &
b11 ,
#13600
b100 &
b100 ,
#13800
b101 &
b101 ,
#14000
b110 &
b110 ,
#14200
b111 &
b111 ,
#14400
b1000 &
b1000 ,
#14600
b1001 &
b1001 ,
#14800
b1010 &
b1010 ,
#15000
b1011 &
b1011 ,
#15200
b1100 &
b1100 ,
#15400
b1101 &
b1101 ,
#15600
b1110 &
b1110 ,
#15800
b1111 &
b1111 ,
#16000
0s
1p
0i
0F
0G
b1011 $
b1011 -
b1011 4
b1011 /
b1011 g
1m
0j
0D
0l
b1010 1
b1010 <
b1010 >
b1010 f
b101 8
b101 ;
b101 %
b101 *
b0 &
b0 ,
#16200
b1 &
b1 ,
b1011 z
#16400
b10 &
b10 ,
#16600
b11 &
b11 ,
#16800
b100 &
b100 ,
#17000
b101 &
b101 ,
#17200
b110 &
b110 ,
#17400
b111 &
b111 ,
#17600
b1000 &
b1000 ,
#17800
b1001 &
b1001 ,
#18000
b1010 &
b1010 ,
#18200
b1011 &
b1011 ,
#18400
b1100 &
b1100 ,
#18600
b1101 &
b1101 ,
#18800
b1110 &
b1110 ,
#19000
b1111 &
b1111 ,
#19200
1F
1G
0O
0P
0m
1j
b1010 $
b1010 -
b1010 4
b1010 /
b1010 g
1p
1D
0M
1l
0o
b1001 1
b1001 <
b1001 >
b1001 f
b110 8
b110 ;
b110 %
b110 *
b0 &
b0 ,
#19400
b1 &
b1 ,
b1010 z
#19600
b10 &
b10 ,
#19800
b11 &
b11 ,
#20000
b100 &
b100 ,
#20200
b101 &
b101 ,
#20400
b110 &
b110 ,
#20600
b111 &
b111 ,
#20800
b1000 &
b1000 ,
#21000
b1001 &
b1001 ,
#21200
b1010 &
b1010 ,
#21400
b1011 &
b1011 ,
#21600
b1100 &
b1100 ,
#21800
b1101 &
b1101 ,
#22000
b1110 &
b1110 ,
#22200
b1111 &
b1111 ,
#22400
0p
0F
0G
b1001 $
b1001 -
b1001 4
b1001 /
b1001 g
1m
0j
0D
0l
b1000 1
b1000 <
b1000 >
b1000 f
b111 8
b111 ;
b111 %
b111 *
b0 &
b0 ,
#22600
b1 &
b1 ,
b1001 z
#22800
b10 &
b10 ,
#23000
b11 &
b11 ,
#23200
b100 &
b100 ,
#23400
b101 &
b101 ,
#23600
b110 &
b110 ,
#23800
b111 &
b111 ,
#24000
b1000 &
b1000 ,
#24200
b1001 &
b1001 ,
#24400
b1010 &
b1010 ,
#24600
b1011 &
b1011 ,
#24800
b1100 &
b1100 ,
#25000
b1101 &
b1101 ,
#25200
b1110 &
b1110 ,
#25400
b1111 &
b1111 ,
#25600
0!
0:
1h
1i
1"
19
1F
1G
1O
1P
1X
1Y
0a
0b
0m
1j
0p
0s
b1000 $
b1000 -
b1000 4
b1000 /
b1000 g
1v
1D
1M
1V
0_
1l
1o
1r
0u
b111 1
b111 <
b111 >
b111 f
b1000 8
b1000 ;
b1000 %
b1000 *
b0 &
b0 ,
#25800
b1 &
b1 ,
b1000 z
#26000
b10 &
b10 ,
#26200
b11 &
b11 ,
#26400
b100 &
b100 ,
#26600
b101 &
b101 ,
#26800
b110 &
b110 ,
#27000
b111 &
b111 ,
#27200
b1000 &
b1000 ,
#27400
b1001 &
b1001 ,
#27600
b1010 &
b1010 ,
#27800
b1011 &
b1011 ,
#28000
b1100 &
b1100 ,
#28200
b1101 &
b1101 ,
#28400
b1110 &
b1110 ,
#28600
b1111 &
b1111 ,
#28800
0"
09
0v
1s
0h
1p
0i
0F
0G
b111 $
b111 -
b111 4
b111 /
b111 g
1m
0j
0D
0l
b110 1
b110 <
b110 >
b110 f
b1001 8
b1001 ;
b1001 %
b1001 *
b0 &
b0 ,
#29000
b1 &
b1 ,
0x
b111 z
#29200
b10 &
b10 ,
#29400
b11 &
b11 ,
#29600
b100 &
b100 ,
#29800
b101 &
b101 ,
#30000
b110 &
b110 ,
#30200
b111 &
b111 ,
#30400
b1000 &
b1000 ,
#30600
b1001 &
b1001 ,
#30800
b1010 &
b1010 ,
#31000
b1011 &
b1011 ,
#31200
b1100 &
b1100 ,
#31400
b1101 &
b1101 ,
#31600
b1110 &
b1110 ,
#31800
b1111 &
b1111 ,
#32000
1F
1G
0O
0P
0m
1j
b110 $
b110 -
b110 4
b110 /
b110 g
1p
1D
0M
1l
0o
b101 1
b101 <
b101 >
b101 f
b1010 8
b1010 ;
b1010 %
b1010 *
b0 &
b0 ,
#32200
b1 &
b1 ,
b110 z
#32400
b10 &
b10 ,
#32600
b11 &
b11 ,
#32800
b100 &
b100 ,
#33000
b101 &
b101 ,
#33200
b110 &
b110 ,
#33400
b111 &
b111 ,
#33600
b1000 &
b1000 ,
#33800
b1001 &
b1001 ,
#34000
b1010 &
b1010 ,
#34200
b1011 &
b1011 ,
#34400
b1100 &
b1100 ,
#34600
b1101 &
b1101 ,
#34800
b1110 &
b1110 ,
#35000
b1111 &
b1111 ,
#35200
0p
0F
0G
b101 $
b101 -
b101 4
b101 /
b101 g
1m
0j
0D
0l
b100 1
b100 <
b100 >
b100 f
b1011 8
b1011 ;
b1011 %
b1011 *
b0 &
b0 ,
#35400
b1 &
b1 ,
b101 z
#35600
b10 &
b10 ,
#35800
b11 &
b11 ,
#36000
b100 &
b100 ,
#36200
b101 &
b101 ,
#36400
b110 &
b110 ,
#36600
b111 &
b111 ,
#36800
b1000 &
b1000 ,
#37000
b1001 &
b1001 ,
#37200
b1010 &
b1010 ,
#37400
b1011 &
b1011 ,
#37600
b1100 &
b1100 ,
#37800
b1101 &
b1101 ,
#38000
b1110 &
b1110 ,
#38200
b1111 &
b1111 ,
#38400
1i
1F
1G
1O
1P
0X
0Y
0m
1j
0p
b100 $
b100 -
b100 4
b100 /
b100 g
1s
1D
1M
0V
1l
1o
0r
b11 1
b11 <
b11 >
b11 f
b1100 8
b1100 ;
b1100 %
b1100 *
b0 &
b0 ,
#38600
b1 &
b1 ,
b100 z
#38800
b10 &
b10 ,
#39000
b11 &
b11 ,
#39200
b100 &
b100 ,
#39400
b101 &
b101 ,
#39600
b110 &
b110 ,
#39800
b111 &
b111 ,
#40000
b1000 &
b1000 ,
#40200
b1001 &
b1001 ,
#40400
b1010 &
b1010 ,
#40600
b1011 &
b1011 ,
#40800
b1100 &
b1100 ,
#41000
b1101 &
b1101 ,
#41200
b1110 &
b1110 ,
#41400
b1111 &
b1111 ,
#41600
0s
1p
0i
0F
0G
b11 $
b11 -
b11 4
b11 /
b11 g
1m
0j
0D
0l
b10 1
b10 <
b10 >
b10 f
b1101 8
b1101 ;
b1101 %
b1101 *
b0 &
b0 ,
#41800
b1 &
b1 ,
b11 z
#42000
b10 &
b10 ,
#42200
b11 &
b11 ,
#42400
b100 &
b100 ,
#42600
b101 &
b101 ,
#42800
b110 &
b110 ,
#43000
b111 &
b111 ,
#43200
b1000 &
b1000 ,
#43400
b1001 &
b1001 ,
#43600
b1010 &
b1010 ,
#43800
b1011 &
b1011 ,
#44000
b1100 &
b1100 ,
#44200
b1101 &
b1101 ,
#44400
b1110 &
b1110 ,
#44600
b1111 &
b1111 ,
#44800
0!
0:
1F
1G
0O
0P
0m
1j
b10 $
b10 -
b10 4
b10 /
b10 g
1p
1D
0M
1l
0o
b1 1
b1 <
b1 >
b1 f
b1110 8
b1110 ;
b1110 %
b1110 *
b0 &
b0 ,
#45000
b1 &
b1 ,
b10 z
#45200
b10 &
b10 ,
#45400
b11 &
b11 ,
#45600
b100 &
b100 ,
#45800
b101 &
b101 ,
#46000
b110 &
b110 ,
#46200
b111 &
b111 ,
#46400
b1000 &
b1000 ,
#46600
b1001 &
b1001 ,
#46800
b1010 &
b1010 ,
#47000
b1011 &
b1011 ,
#47200
b1100 &
b1100 ,
#47400
b1101 &
b1101 ,
#47600
b1110 &
b1110 ,
#47800
b1111 &
b1111 ,
#48000
0p
0F
0G
b1 $
b1 -
b1 4
b1 /
b1 g
1m
0j
0D
0l
b0 1
b0 <
b0 >
b0 f
b1111 8
b1111 ;
b1111 %
b1111 *
b0 &
b0 ,
#48200
b1 &
b1 ,
b1 z
#48400
b10 &
b10 ,
#48600
b11 &
b11 ,
#48800
b100 &
b100 ,
#49000
b101 &
b101 ,
#49200
b110 &
b110 ,
#49400
b111 &
b111 ,
#49600
b1000 &
b1000 ,
#49800
b1001 &
b1001 ,
#50000
b1010 &
b1010 ,
#50200
b1011 &
b1011 ,
#50400
b1100 &
b1100 ,
#50600
b1101 &
b1101 ,
#50800
b1110 &
b1110 ,
#51000
b1111 &
b1111 ,
#51200
1#
15
1!
1:
10
1h
1H
1Q
1Z
b1111 .
b1111 @
1c
1i
0"
09
1F
1G
1O
1P
1X
1Y
1a
1b
0m
1j
0p
0s
b0 $
b0 -
b0 4
b0 /
b0 g
0v
1D
1M
1V
1_
1l
1o
1r
1u
b1111 1
b1111 <
b1111 >
b1111 f
b0 8
b0 ;
b1 '
b1 +
b1 ?
b1 A
b1 I
b1 J
b1 R
b1 S
b1 [
b1 \
b1 d
b0 %
b0 *
b0 &
b0 ,
#51400
0#
05
1"
19
1v
00
1s
0h
b1110 .
b1110 @
0H
0!
0:
1p
0i
0F
0G
b1111 $
b1111 -
b1111 4
b1111 /
b1111 g
1m
0j
0D
0l
b1110 1
b1110 <
b1110 >
b1110 f
b1 8
b1 ;
b1 &
b1 ,
1y
1w
b10000 z
#51600
1H
b1101 .
b1101 @
0Q
1F
1G
0O
0P
0m
1j
b1110 $
b1110 -
b1110 4
b1110 /
b1110 g
1p
1D
0M
1l
0o
b1101 1
b1101 <
b1101 >
b1101 f
b10 8
b10 ;
b10 &
b10 ,
0y
1x
0w
b1111 z
#51800
b1100 .
b1100 @
0H
0p
0F
0G
b1101 $
b1101 -
b1101 4
b1101 /
b1101 g
1m
0j
0D
0l
b1100 1
b1100 <
b1100 >
b1100 f
b11 8
b11 ;
b11 &
b11 ,
b1110 z
#52000
1H
1Q
b1011 .
b1011 @
0Z
1i
1F
1G
1O
1P
0X
0Y
0m
1j
0p
b1100 $
b1100 -
b1100 4
b1100 /
b1100 g
1s
1D
1M
0V
1l
1o
0r
b1011 1
b1011 <
b1011 >
b1011 f
b100 8
b100 ;
b100 &
b100 ,
b1101 z
#52200
0s
b1010 .
b1010 @
0H
1p
0i
0F
0G
b1011 $
b1011 -
b1011 4
b1011 /
b1011 g
1m
0j
0D
0l
b1010 1
b1010 <
b1010 >
b1010 f
b101 8
b101 ;
b101 &
b101 ,
b1100 z
#52400
1H
b1001 .
b1001 @
0Q
1F
1G
0O
0P
0m
1j
b1010 $
b1010 -
b1010 4
b1010 /
b1010 g
1p
1D
0M
1l
0o
b1001 1
b1001 <
b1001 >
b1001 f
b110 8
b110 ;
b110 &
b110 ,
b1011 z
#52600
b1000 .
b1000 @
0H
0p
0F
0G
b1001 $
b1001 -
b1001 4
b1001 /
b1001 g
1m
0j
0D
0l
b1000 1
b1000 <
b1000 >
b1000 f
b111 8
b111 ;
b111 &
b111 ,
b1010 z
#52800
0!
0:
1h
1H
1Q
1Z
b111 .
b111 @
0c
1i
1"
19
1F
1G
1O
1P
1X
1Y
0a
0b
0m
1j
0p
0s
b1000 $
b1000 -
b1000 4
b1000 /
b1000 g
1v
1D
1M
1V
0_
1l
1o
1r
0u
b111 1
b111 <
b111 >
b111 f
b1000 8
b1000 ;
b1000 &
b1000 ,
b1001 z
#53000
0"
09
0v
1s
0h
b110 .
b110 @
0H
1p
0i
0F
0G
b111 $
b111 -
b111 4
b111 /
b111 g
1m
0j
0D
0l
b110 1
b110 <
b110 >
b110 f
b1001 8
b1001 ;
b1001 &
b1001 ,
b1000 z
#53200
1H
b101 .
b101 @
0Q
1F
1G
0O
0P
0m
1j
b110 $
b110 -
b110 4
b110 /
b110 g
1p
1D
0M
1l
0o
b101 1
b101 <
b101 >
b101 f
b1010 8
b1010 ;
b1010 &
b1010 ,
0x
b111 z
#53400
b100 .
b100 @
0H
0p
0F
0G
b101 $
b101 -
b101 4
b101 /
b101 g
1m
0j
0D
0l
b100 1
b100 <
b100 >
b100 f
b1011 8
b1011 ;
b1011 &
b1011 ,
b110 z
#53600
1H
1Q
b11 .
b11 @
0Z
1i
1F
1G
1O
1P
0X
0Y
0m
1j
0p
b100 $
b100 -
b100 4
b100 /
b100 g
1s
1D
1M
0V
1l
1o
0r
b11 1
b11 <
b11 >
b11 f
b1100 8
b1100 ;
b1100 &
b1100 ,
b101 z
#53800
0s
b10 .
b10 @
0H
1p
0i
0F
0G
b11 $
b11 -
b11 4
b11 /
b11 g
1m
0j
0D
0l
b10 1
b10 <
b10 >
b10 f
b1101 8
b1101 ;
b1101 &
b1101 ,
b100 z
#54000
1H
b1 .
b1 @
0Q
0!
0:
1F
1G
0O
0P
0m
1j
b10 $
b10 -
b10 4
b10 /
b10 g
1p
1D
0M
1l
0o
b1 1
b1 <
b1 >
b1 f
b1110 8
b1110 ;
b1110 &
b1110 ,
b11 z
#54200
b0 .
b0 @
0H
0p
0F
0G
b1 $
b1 -
b1 4
b1 /
b1 g
1m
0j
0D
0l
b0 1
b0 <
b0 >
b0 f
b1111 8
b1111 ;
b1111 &
b1111 ,
b10 z
#54400
1#
15
1!
1:
10
1h
1H
1Q
1Z
b1111 .
b1111 @
1c
1i
0"
09
1F
1G
1O
1P
1X
1Y
1a
1b
0m
1j
0p
0s
b0 $
b0 -
b0 4
b0 /
b0 g
0v
1D
1M
1V
1_
1l
1o
1r
1u
b1111 1
b1111 <
b1111 >
b1111 f
b0 8
b0 ;
b1 %
b1 *
b0 &
b0 ,
b1 z
#54600
0#
05
1"
19
1v
00
1s
0h
b1110 .
b1110 @
0H
0!
0:
1p
0i
0F
0G
b1111 $
b1111 -
b1111 4
b1111 /
b1111 g
1m
0j
0D
0l
b1110 1
b1110 <
b1110 >
b1110 f
b1 8
b1 ;
b1 &
b1 ,
1y
1w
b10000 z
#54800
1H
b1101 .
b1101 @
0Q
1F
1G
0O
0P
0m
1j
b1110 $
b1110 -
b1110 4
b1110 /
b1110 g
1p
1D
0M
1l
0o
b1101 1
b1101 <
b1101 >
b1101 f
b10 8
b10 ;
b10 &
b10 ,
0y
1x
0w
b1111 z
#55000
b1100 .
b1100 @
0H
0p
0F
0G
b1101 $
b1101 -
b1101 4
b1101 /
b1101 g
1m
0j
0D
0l
b1100 1
b1100 <
b1100 >
b1100 f
b11 8
b11 ;
b11 &
b11 ,
b1110 z
#55200
1H
1Q
b1011 .
b1011 @
0Z
1i
1F
1G
1O
1P
0X
0Y
0m
1j
0p
b1100 $
b1100 -
b1100 4
b1100 /
b1100 g
1s
1D
1M
0V
1l
1o
0r
b1011 1
b1011 <
b1011 >
b1011 f
b100 8
b100 ;
b100 &
b100 ,
b1101 z
#55400
0s
b1010 .
b1010 @
0H
1p
0i
0F
0G
b1011 $
b1011 -
b1011 4
b1011 /
b1011 g
1m
0j
0D
0l
b1010 1
b1010 <
b1010 >
b1010 f
b101 8
b101 ;
b101 &
b101 ,
b1100 z
#55600
1H
b1001 .
b1001 @
0Q
1F
1G
0O
0P
0m
1j
b1010 $
b1010 -
b1010 4
b1010 /
b1010 g
1p
1D
0M
1l
0o
b1001 1
b1001 <
b1001 >
b1001 f
b110 8
b110 ;
b110 &
b110 ,
b1011 z
#55800
b1000 .
b1000 @
0H
0p
0F
0G
b1001 $
b1001 -
b1001 4
b1001 /
b1001 g
1m
0j
0D
0l
b1000 1
b1000 <
b1000 >
b1000 f
b111 8
b111 ;
b111 &
b111 ,
b1010 z
#56000
0!
0:
1h
1H
1Q
1Z
b111 .
b111 @
0c
1i
1"
19
1F
1G
1O
1P
1X
1Y
0a
0b
0m
1j
0p
0s
b1000 $
b1000 -
b1000 4
b1000 /
b1000 g
1v
1D
1M
1V
0_
1l
1o
1r
0u
b111 1
b111 <
b111 >
b111 f
b1000 8
b1000 ;
b1000 &
b1000 ,
b1001 z
#56200
0"
09
0v
1s
0h
b110 .
b110 @
0H
1p
0i
0F
0G
b111 $
b111 -
b111 4
b111 /
b111 g
1m
0j
0D
0l
b110 1
b110 <
b110 >
b110 f
b1001 8
b1001 ;
b1001 &
b1001 ,
b1000 z
#56400
1H
b101 .
b101 @
0Q
1F
1G
0O
0P
0m
1j
b110 $
b110 -
b110 4
b110 /
b110 g
1p
1D
0M
1l
0o
b101 1
b101 <
b101 >
b101 f
b1010 8
b1010 ;
b1010 &
b1010 ,
0x
b111 z
#56600
b100 .
b100 @
0H
0p
0F
0G
b101 $
b101 -
b101 4
b101 /
b101 g
1m
0j
0D
0l
b100 1
b100 <
b100 >
b100 f
b1011 8
b1011 ;
b1011 &
b1011 ,
b110 z
#56800
1H
1Q
b11 .
b11 @
0Z
1i
1F
1G
1O
1P
0X
0Y
0m
1j
0p
b100 $
b100 -
b100 4
b100 /
b100 g
1s
1D
1M
0V
1l
1o
0r
b11 1
b11 <
b11 >
b11 f
b1100 8
b1100 ;
b1100 &
b1100 ,
b101 z
#57000
0s
b10 .
b10 @
0H
1p
0i
0F
0G
b11 $
b11 -
b11 4
b11 /
b11 g
1m
0j
0D
0l
b10 1
b10 <
b10 >
b10 f
b1101 8
b1101 ;
b1101 &
b1101 ,
b100 z
#57200
1H
b1 .
b1 @
0Q
0!
0:
1F
1G
0O
0P
0m
1j
b10 $
b10 -
b10 4
b10 /
b10 g
1p
1D
0M
1l
0o
b1 1
b1 <
b1 >
b1 f
b1110 8
b1110 ;
b1110 &
b1110 ,
b11 z
#57400
b0 .
b0 @
0H
0p
0F
0G
b1 $
b1 -
b1 4
b1 /
b1 g
1m
0j
0D
0l
b0 1
b0 <
b0 >
b0 f
b1111 8
b1111 ;
b1111 &
b1111 ,
b10 z
#57600
1#
15
1!
1:
10
1h
1H
1Q
1Z
b1111 .
b1111 @
1c
1i
0"
09
1F
1G
1O
1P
1X
1Y
1a
1b
0m
1j
0p
0s
b0 $
b0 -
b0 4
b0 /
b0 g
0v
1D
1M
1V
1_
1l
1o
1r
1u
b1111 1
b1111 <
b1111 >
b1111 f
b0 8
b0 ;
b10 %
b10 *
b0 &
b0 ,
b1 z
#57800
0#
05
1"
19
1v
00
1s
0h
b1110 .
b1110 @
0H
0!
0:
1p
0i
0F
0G
b1111 $
b1111 -
b1111 4
b1111 /
b1111 g
1m
0j
0D
0l
b1110 1
b1110 <
b1110 >
b1110 f
b1 8
b1 ;
b1 &
b1 ,
1y
1w
b10000 z
#58000
1H
b1101 .
b1101 @
0Q
1F
1G
0O
0P
0m
1j
b1110 $
b1110 -
b1110 4
b1110 /
b1110 g
1p
1D
0M
1l
0o
b1101 1
b1101 <
b1101 >
b1101 f
b10 8
b10 ;
b10 &
b10 ,
0y
1x
0w
b1111 z
#58200
b1100 .
b1100 @
0H
0p
0F
0G
b1101 $
b1101 -
b1101 4
b1101 /
b1101 g
1m
0j
0D
0l
b1100 1
b1100 <
b1100 >
b1100 f
b11 8
b11 ;
b11 &
b11 ,
b1110 z
#58400
1H
1Q
b1011 .
b1011 @
0Z
1i
1F
1G
1O
1P
0X
0Y
0m
1j
0p
b1100 $
b1100 -
b1100 4
b1100 /
b1100 g
1s
1D
1M
0V
1l
1o
0r
b1011 1
b1011 <
b1011 >
b1011 f
b100 8
b100 ;
b100 &
b100 ,
b1101 z
#58600
0s
b1010 .
b1010 @
0H
1p
0i
0F
0G
b1011 $
b1011 -
b1011 4
b1011 /
b1011 g
1m
0j
0D
0l
b1010 1
b1010 <
b1010 >
b1010 f
b101 8
b101 ;
b101 &
b101 ,
b1100 z
#58800
1H
b1001 .
b1001 @
0Q
1F
1G
0O
0P
0m
1j
b1010 $
b1010 -
b1010 4
b1010 /
b1010 g
1p
1D
0M
1l
0o
b1001 1
b1001 <
b1001 >
b1001 f
b110 8
b110 ;
b110 &
b110 ,
b1011 z
#59000
b1000 .
b1000 @
0H
0p
0F
0G
b1001 $
b1001 -
b1001 4
b1001 /
b1001 g
1m
0j
0D
0l
b1000 1
b1000 <
b1000 >
b1000 f
b111 8
b111 ;
b111 &
b111 ,
b1010 z
#59200
0!
0:
1h
1H
1Q
1Z
b111 .
b111 @
0c
1i
1"
19
1F
1G
1O
1P
1X
1Y
0a
0b
0m
1j
0p
0s
b1000 $
b1000 -
b1000 4
b1000 /
b1000 g
1v
1D
1M
1V
0_
1l
1o
1r
0u
b111 1
b111 <
b111 >
b111 f
b1000 8
b1000 ;
b1000 &
b1000 ,
b1001 z
#59400
0"
09
0v
1s
0h
b110 .
b110 @
0H
1p
0i
0F
0G
b111 $
b111 -
b111 4
b111 /
b111 g
1m
0j
0D
0l
b110 1
b110 <
b110 >
b110 f
b1001 8
b1001 ;
b1001 &
b1001 ,
b1000 z
#59600
1H
b101 .
b101 @
0Q
1F
1G
0O
0P
0m
1j
b110 $
b110 -
b110 4
b110 /
b110 g
1p
1D
0M
1l
0o
b101 1
b101 <
b101 >
b101 f
b1010 8
b1010 ;
b1010 &
b1010 ,
0x
b111 z
#59800
b100 .
b100 @
0H
0p
0F
0G
b101 $
b101 -
b101 4
b101 /
b101 g
1m
0j
0D
0l
b100 1
b100 <
b100 >
b100 f
b1011 8
b1011 ;
b1011 &
b1011 ,
b110 z
#60000
1H
1Q
b11 .
b11 @
0Z
1i
1F
1G
1O
1P
0X
0Y
0m
1j
0p
b100 $
b100 -
b100 4
b100 /
b100 g
1s
1D
1M
0V
1l
1o
0r
b11 1
b11 <
b11 >
b11 f
b1100 8
b1100 ;
b1100 &
b1100 ,
b101 z
